…
    ## ── Conflicts ────────────────────────────────────────── tidyverse_conflicts() ──
    ## x dplyr::filter() masks stats::filter()
    ## x dplyr::lag()    masks stats::lag()

``` r
iris <- as_tibble(iris)
iris <- rename(iris, sepal_length = Sepal.Length, sepal_width = Sepal.Width, petal_length = Petal.Length, petal_width = Petal.Width, species = Species)
iris
```

    ## # A tibble: 150 x 5
    ##    sepal_length sepal_width petal_length petal_width species
    ##           <dbl>       <dbl>        <dbl>       <dbl> <fct>  
    ##  1          5.1         3.5          1.4         0.2 setosa 
    ##  2          4.9         3            1.4         0.2 setosa 
    ##  3          4.7         3.2          1.3         0.2 setosa 
    ##  4          4.6         3.1          1.5         0.2 setosa 
    ##  5          5           3.6          1.4         0.2 setosa 
    ##  6          5.4         3.9          1.7         0.4 setosa 
    ##  7          4.6         3.4          1.4         0.3 setosa 
    ##  8          5           3.4          1.5         0.2 setosa 
    ##  9          4.4         2.9          1.4         0.2 setosa 
    ## 10          4.9         3.1          1.5         0.1 setosa 
    ## # … with 140 more rows

2.  Convert the four numerical variables from cm to mm by multiplying by
    10. Print the resulting table.

<!-- end list -->

``` r
iris2 <- mutate(iris, sepal_length_cm = sepal_length * 10, sepal_width_cm = sepal_width * 10, petal_length_cm = petal_length * 10, petal_width_cm = petal_width * 10)
iris2 <- select(iris2, species, sepal_length_cm, sepal_width_cm, petal_length_cm, petal_width_cm)
iris2
```

    ## # A tibble: 150 x 5
    ##    species sepal_length_cm sepal_width_cm petal_length_cm petal_width_cm
    ##    <fct>             <dbl>          <dbl>           <dbl>          <dbl>
    ##  1 setosa               51             35              14              2
    ##  2 setosa               49             30              14              2
    ##  3 setosa               47             32              13              2
    ##  4 setosa               46             31              15              2
    ##  5 setosa               50             36              14              2
    ##  6 setosa               54             39              17              4
    ##  7 setosa               46             34              14              3
    ##  8 setosa               50             34              15              2
    ##  9 setosa               44             29              14              2
    ## 10 setosa               49             31              15              1
    ## # … with 140 more rows

3.  Calculate sepal area and petal area (area is equal to length
    multiplied by width). Print a table with only the variables sepal
    area, petal area, and species.

<!-- end list -->

``` r
iris3 <- mutate(iris, sepal_area = sepal_length * sepal_width, petal_area = petal_length * petal_width)
iris3 <- select(iris3, sepal_area, petal_area, species)
iris3
```

    ## # A tibble: 150 x 3
    ##    sepal_area petal_area species
    ##         <dbl>      <dbl> <fct>  
    ##  1       17.8      0.280 setosa 
    ##  2       14.7      0.280 setosa 
    ##  3       15.0      0.26  setosa 
    ##  4       14.3      0.3   setosa 
    ##  5       18        0.280 setosa 
    ##  6       21.1      0.68  setosa 
    ##  7       15.6      0.42  setosa 
    ##  8       17        0.3   setosa 
    ##  9       12.8      0.280 setosa 
    ## 10       15.2      0.15  setosa 
    ## # … with 140 more rows
…
